(module micro_sd_breakout (layer F.Cu) (tedit 60F880C4)
  (fp_text reference REF** (at 1.27 -6.35) (layer F.SilkS)
    (effects (font (size 1 1) (thickness 0.15)))
  )
  (fp_text value micro_sd_breakout (at 1.27 -17.78) (layer F.Fab)
    (effects (font (size 1 1) (thickness 0.15)))
  )
  (fp_poly (pts (xy 8.89 -11.43) (xy 5.08 -8.89) (xy 5.08 -11.43) (xy -3.81 -11.43)
    (xy -3.81 -12.7) (xy 5.08 -12.7) (xy 5.08 -15.24)) (layer F.SilkS) (width 0.1))
  (fp_line (start -10.16 1.27) (end 1.27 1.27) (layer F.SilkS) (width 0.12))
  (fp_line (start -10.16 -21.59) (end -10.16 1.27) (layer F.SilkS) (width 0.12))
  (fp_line (start -8.89 -21.59) (end -10.16 -21.59) (layer F.SilkS) (width 0.12))
  (fp_line (start 11.43 -21.59) (end -10.16 -21.59) (layer F.SilkS) (width 0.12))
  (fp_line (start 11.43 1.27) (end 11.43 -21.59) (layer F.SilkS) (width 0.12))
  (fp_line (start 0 1.27) (end 11.43 1.27) (layer F.SilkS) (width 0.12))
  (pad 2 thru_hole circle (at -2.54 0) (size 1.524 1.524) (drill 0.762) (layers *.Cu *.Mask))
  (pad 1 thru_hole circle (at -5.08 0) (size 1.524 1.524) (drill 0.762) (layers *.Cu *.Mask))
  (pad 0 thru_hole circle (at -7.62 0) (size 1.524 1.524) (drill 0.762) (layers *.Cu *.Mask))
  (pad 6 thru_hole circle (at 7.62 0) (size 1.524 1.524) (drill 0.762) (layers *.Cu *.Mask))
  (pad 5 thru_hole circle (at 5.08 0) (size 1.524 1.524) (drill 0.762) (layers *.Cu *.Mask))
  (pad 4 thru_hole circle (at 2.54 0) (size 1.524 1.524) (drill 0.762) (layers *.Cu *.Mask))
  (pad 3 thru_hole circle (at 0 0) (size 1.524 1.524) (drill 0.762) (layers *.Cu *.Mask))
)
